%YAML 1.1
%TAG !u! tag:unity3d.com,2011:
--- !u!1 &5506592857998839266
GameObject:
  m_ObjectHideFlags: 0
  m_CorrespondingSourceObject: {fileID: 0}
  m_PrefabInstance: {fileID: 0}
  m_PrefabAsset: {fileID: 0}
  serializedVersion: 6
  m_Component:
  - component: {fileID: 9097081670747887103}
  - component: {fileID: 6021540497984278240}
  - component: {fileID: 7700033141657561361}
  m_Layer: 0
  m_Name: BackgroundController
  m_TagString: Untagged
  m_Icon: {fileID: 0}
  m_NavMeshLayer: 0
  m_StaticEditorFlags: 0
  m_IsActive: 1
--- !u!4 &9097081670747887103
Transform:
  m_ObjectHideFlags: 0
  m_CorrespondingSourceObject: {fileID: 0}
  m_PrefabInstance: {fileID: 0}
  m_PrefabAsset: {fileID: 0}
  m_GameObject: {fileID: 5506592857998839266}
  serializedVersion: 2
  m_LocalRotation: {x: 0, y: 0, z: 0, w: 1}
  m_LocalPosition: {x: 0, y: 0, z: 0}
  m_LocalScale: {x: 0.47, y: 0.47, z: 1}
  m_ConstrainProportionsScale: 0
  m_Children: []
  m_Father: {fileID: 0}
  m_LocalEulerAnglesHint: {x: 0, y: 0, z: 0}
--- !u!212 &6021540497984278240
SpriteRenderer:
  m_ObjectHideFlags: 0
  m_CorrespondingSourceObject: {fileID: 0}
  m_PrefabInstance: {fileID: 0}
  m_PrefabAsset: {fileID: 0}
  m_GameObject: {fileID: 5506592857998839266}
  m_Enabled: 1
  m_CastShadows: 0
  m_ReceiveShadows: 0
  m_DynamicOccludee: 1
  m_StaticShadowCaster: 0
  m_MotionVectors: 1
  m_LightProbeUsage: 1
  m_ReflectionProbeUsage: 1
  m_RayTracingMode: 0
  m_RayTraceProcedural: 0
  m_RenderingLayerMask: 1
  m_RendererPriority: 0
  m_Materials:
  - {fileID: 10754, guid: 0000000000000000f000000000000000, type: 0}
  m_StaticBatchInfo:
    firstSubMesh: 0
    subMeshCount: 0
  m_StaticBatchRoot: {fileID: 0}
  m_ProbeAnchor: {fileID: 0}
  m_LightProbeVolumeOverride: {fileID: 0}
  m_ScaleInLightmap: 1
  m_ReceiveGI: 1
  m_PreserveUVs: 0
  m_IgnoreNormalsForChartDetection: 0
  m_ImportantGI: 0
  m_StitchLightmapSeams: 1
  m_SelectedEditorRenderState: 0
  m_MinimumChartSize: 4
  m_AutoUVMaxDistance: 0.5
  m_AutoUVMaxAngle: 89
  m_LightmapParameters: {fileID: 0}
  m_SortingLayerID: 0
  m_SortingLayer: 0
  m_SortingOrder: -1
  m_Sprite: {fileID: 21300000, guid: 369932f774cb0b84f96ebeb319cabc44, type: 3}
  m_Color: {r: 1, g: 1, b: 1, a: 1}
  m_FlipX: 0
  m_FlipY: 0
  m_DrawMode: 0
  m_Size: {x: 38.399998, y: 21.599998}
  m_AdaptiveModeThreshold: 0.5
  m_SpriteTileMode: 0
  m_WasSpriteAssigned: 1
  m_MaskInteraction: 0
  m_SpriteSortPoint: 0
--- !u!114 &7700033141657561361
MonoBehaviour:
  m_ObjectHideFlags: 0
  m_CorrespondingSourceObject: {fileID: 0}
  m_PrefabInstance: {fileID: 0}
  m_PrefabAsset: {fileID: 0}
  m_GameObject: {fileID: 5506592857998839266}
  m_Enabled: 1
  m_EditorHideFlags: 0
  m_Script: {fileID: 11500000, guid: fc2c4ecd58739d1489cbb7a5e887c17a, type: 3}
  m_Name: 
  m_EditorClassIdentifier: 
  CurrentBackground: 0
  TransitionSpeed: 20
  backgrounds:
  - {fileID: 21300000, guid: 369932f774cb0b84f96ebeb319cabc44, type: 3}
  - {fileID: 21300000, guid: d06b583211084f44d95a03db9c8821a9, type: 3}
  - {fileID: 21300000, guid: f018651a43bb48a47ba8eb59c99fc256, type: 3}
  - {fileID: 21300000, guid: e6ef6f19889c5af4ab4fe5210f652280, type: 3}
  - {fileID: 21300000, guid: eaeeff3a6391a374886fc37204dda541, type: 3}
  - {fileID: 21300000, guid: 0474d93937a011245aa9f8cd8f6453e0, type: 3}
  - {fileID: 21300000, guid: 30c1903e33dc3754bbd3971096c55ce3, type: 3}
  - {fileID: 21300000, guid: 9db17da065eef58428699059a5784bed, type: 3}
  - {fileID: 21300000, guid: 659fcbfe144e94c499a8c9a420e6cf18, type: 3}
  - {fileID: 21300000, guid: 7d9f31a8ef57e9f42981f4790695dee8, type: 3}
  - {fileID: 21300000, guid: 2e28eb5fc96ce0441b977601df11179f, type: 3}
  - {fileID: 21300000, guid: 7d66768cc21455540aa746d1c2c14220, type: 3}
