%YAML 1.1
%TAG !u! tag:unity3d.com,2011:
--- !u!1 &7229957650447526803
GameObject:
  m_ObjectHideFlags: 0
  m_CorrespondingSourceObject: {fileID: 0}
  m_PrefabInstance: {fileID: 0}
  m_PrefabAsset: {fileID: 0}
  serializedVersion: 6
  m_Component:
  - component: {fileID: 5271383142716302722}
  - component: {fileID: 6613926576261193140}
  m_Layer: 0
  m_Name: GameController
  m_TagString: Untagged
  m_Icon: {fileID: 0}
  m_NavMeshLayer: 0
  m_StaticEditorFlags: 0
  m_IsActive: 1
--- !u!4 &5271383142716302722
Transform:
  m_ObjectHideFlags: 0
  m_CorrespondingSourceObject: {fileID: 0}
  m_PrefabInstance: {fileID: 0}
  m_PrefabAsset: {fileID: 0}
  m_GameObject: {fileID: 7229957650447526803}
  serializedVersion: 2
  m_LocalRotation: {x: 0, y: 0, z: 0, w: 1}
  m_LocalPosition: {x: 0.9132744, y: 0.20359942, z: 0.04050142}
  m_LocalScale: {x: 1, y: 1, z: 1}
  m_ConstrainProportionsScale: 0
  m_Children: []
  m_Father: {fileID: 0}
  m_LocalEulerAnglesHint: {x: 0, y: 0, z: 0}
--- !u!114 &6613926576261193140
MonoBehaviour:
  m_ObjectHideFlags: 0
  m_CorrespondingSourceObject: {fileID: 0}
  m_PrefabInstance: {fileID: 0}
  m_PrefabAsset: {fileID: 0}
  m_GameObject: {fileID: 7229957650447526803}
  m_Enabled: 1
  m_EditorHideFlags: 0
  m_Script: {fileID: 11500000, guid: 0f34f5f047dc64742a48d95c4393f642, type: 3}
  m_Name: 
  m_EditorClassIdentifier: 
  SpawnEnnemyCooldown: 1
  EnnemyPrefabs:
  - {fileID: 5539103568891418368, guid: 5398c9ddd8c71a748af9fc489fb0ca81, type: 3}
  - {fileID: 3631956790801623550, guid: f0e440622dc7493468316dc094dcd489, type: 3}
  - {fileID: 5040155807486245710, guid: ee7cf0fdc19ab984b9a2558903308a16, type: 3}
  - {fileID: 1714274998676182, guid: 28781c52aa8514440b6452e64304eb01, type: 3}
  - {fileID: 1475286338648080, guid: ea93f6f2b319a8a4680994a2588f1a39, type: 3}
  - {fileID: 7451737185708937678, guid: 764b6489cbeb15f4a80fbdbe7d49f7b4, type: 3}
  - {fileID: 3032672657413112226, guid: 181e4df5e0ee628489a0a864389e587d, type: 3}
  - {fileID: 6285379430149504413, guid: 44fd03b6ca775674cbd79e0bf05e4be6, type: 3}
  - {fileID: 2946989359822449562, guid: e1266fb06237c4c4787afd869ed503a6, type: 3}
  - {fileID: 5304625963501853163, guid: 5527a92cea109a446960384562e3c275, type: 3}
  - {fileID: 7114506880819460613, guid: 8903d11dc16d28b428d2ca0341effd77, type: 3}
  - {fileID: 6929233131096232498, guid: 1326620ad84477d46a1a86fd3a94f3c8, type: 3}
  - {fileID: 2946989359822449562, guid: 07753ef757bc7b54095a520409265a6d, type: 3}
  - {fileID: 1026345060812982, guid: 76b680f855bac244780112ec0c6d87b8, type: 3}
  - {fileID: 1808018432986172, guid: 86eba0365dc24274ea9a5ad96fce1e32, type: 3}
  CurrentStage: 1
  EnnemiesKilledInCurrentStage: 0
  TotalEnnemiesKilled: 0
  HealthModifier: 1
  HealthModifierMultiplier: 1.1
  NumEnnemiesPerStage: 5
  NumEnnemiesPerStageIncrement: 1
  RandomEnnemySpawnRate: 1
  RandomEnnemySpawnChance: 0.1
  RandomEnnemySpawnLeftX: -10
  RandomEnnemyPrefab: {fileID: 2352600370110161187, guid: 581353d5d80f8b644952d5dc371cccec, type: 3}
